<?xml version="1.0" encoding="UTF-8" standalone="no"?>
<!-- Created with Inkscape (http://www.inkscape.org/) -->

<svg
   width="1366"
   height="768"
   viewBox="0 0 1366 768"
   version="1.1"
   id="svg5"
   inkscape:version="1.1.2 (1:1.1+202202050950+0a00cf5339)"
   sodipodi:docname="cronograma.svg"
   inkscape:export-filename="/home/largocreatura/Documentos/Trabajo/ESDM/Programación Creativa/2021-2022/guia-docente/img/cronograma.png"
   inkscape:export-xdpi="126"
   inkscape:export-ydpi="126"
   xmlns:inkscape="http://www.inkscape.org/namespaces/inkscape"
   xmlns:sodipodi="http://sodipodi.sourceforge.net/DTD/sodipodi-0.dtd"
   xmlns="http://www.w3.org/2000/svg"
   xmlns:svg="http://www.w3.org/2000/svg">
  <sodipodi:namedview
     id="namedview7"
     pagecolor="#ffffff"
     bordercolor="#666666"
     borderopacity="1.0"
     inkscape:pageshadow="2"
     inkscape:pageopacity="0.0"
     inkscape:pagecheckerboard="0"
     inkscape:document-units="px"
     showgrid="false"
     inkscape:snap-global="false"
     inkscape:snap-bbox="true"
     inkscape:snap-object-midpoints="true"
     showguides="false"
     inkscape:guide-bbox="true"
     inkscape:zoom="0.64"
     inkscape:cx="674.21875"
     inkscape:cy="220.3125"
     inkscape:window-width="1920"
     inkscape:window-height="1022"
     inkscape:window-x="1920"
     inkscape:window-y="28"
     inkscape:window-maximized="1"
     inkscape:current-layer="g1629">
    <sodipodi:guide
       position="81.114366,627.05988"
       orientation="1,0"
       id="guide28040" />
  </sodipodi:namedview>
  <defs
     id="defs2">
    <marker
       style="overflow:visible"
       id="marker1459"
       refX="0.0"
       refY="0.0"
       orient="auto"
       inkscape:stockid="StopL"
       inkscape:isstock="true">
      <path
         transform="scale(0.8)"
         style="fill:none;fill-opacity:0.75000000;fill-rule:evenodd;stroke:context-stroke;stroke-width:1.0pt"
         d="M 0.0,5.65 L 0.0,-5.65"
         id="path1457" />
    </marker>
    <marker
       style="overflow:visible"
       id="StopL"
       refX="0.0"
       refY="0.0"
       orient="auto"
       inkscape:stockid="StopL"
       inkscape:isstock="true">
      <path
         transform="scale(0.8)"
         style="fill:none;fill-opacity:0.75000000;fill-rule:evenodd;stroke:context-stroke;stroke-width:1.0pt"
         d="M 0.0,5.65 L 0.0,-5.65"
         id="path1124" />
    </marker>
    <marker
       style="overflow:visible"
       id="marker1441"
       refX="0.0"
       refY="0.0"
       orient="auto"
       inkscape:stockid="DotL"
       inkscape:isstock="true">
      <path
         transform="scale(0.8) translate(7.4, 1)"
         style="fill-rule:evenodd;fill:context-stroke;stroke:context-stroke;stroke-width:1.0pt"
         d="M -2.5,-1.0 C -2.5,1.7600000 -4.7400000,4.0 -7.5,4.0 C -10.260000,4.0 -12.5,1.7600000 -12.5,-1.0 C -12.5,-3.7600000 -10.260000,-6.0 -7.5,-6.0 C -4.7400000,-6.0 -2.5,-3.7600000 -2.5,-1.0 z "
         id="path1016" />
    </marker>
    <marker
       inkscape:stockid="DistanceEnd"
       orient="auto"
       refY="0.0"
       refX="0.0"
       id="DistanceEnd"
       style="overflow:visible"
       inkscape:isstock="true">
      <g
         id="g2301">
        <path
           id="path2316"
           d="M 0,0 L -2,0"
           style="fill:none;stroke:context-fill;stroke-width:1.15;stroke-linecap:square" />
        <path
           id="path2312"
           d="M 0,0 L -13,4 L -9,0 -13,-4 L 0,0 z "
           style="fill:context-stroke;fill-rule:evenodd;stroke:none" />
        <path
           id="path2314"
           d="M 0,-4 L 0,40"
           style="fill:none;stroke:context-stroke;stroke-width:1;stroke-linecap:square" />
      </g>
    </marker>
    <marker
       inkscape:stockid="DistanceStart"
       orient="auto"
       refY="0.0"
       refX="0.0"
       id="marker1403"
       style="overflow:visible"
       inkscape:isstock="true">
      <g
         id="g1401">
        <path
           id="path1395"
           d="M 0,0 L 2,0"
           style="fill:none;stroke:context-fill;stroke-width:1.15;stroke-linecap:square" />
        <path
           id="path1397"
           d="M 0,0 L 13,4 L 9,0 13,-4 L 0,0 z "
           style="fill:context-stroke;fill-rule:evenodd;stroke:none" />
        <path
           id="path1399"
           d="M 0,-4 L 0,40"
           style="fill:none;stroke:context-stroke;stroke-width:1;stroke-linecap:square" />
      </g>
    </marker>
    <marker
       inkscape:stockid="DistanceStart"
       orient="auto"
       refY="0.0"
       refX="0.0"
       id="DistanceStart"
       style="overflow:visible"
       inkscape:isstock="true">
      <g
         id="g2300">
        <path
           id="path2306"
           d="M 0,0 L 2,0"
           style="fill:none;stroke:context-fill;stroke-width:1.15;stroke-linecap:square" />
        <path
           id="path2302"
           d="M 0,0 L 13,4 L 9,0 13,-4 L 0,0 z "
           style="fill:context-stroke;fill-rule:evenodd;stroke:none" />
        <path
           id="path2304"
           d="M 0,-4 L 0,40"
           style="fill:none;stroke:context-stroke;stroke-width:1;stroke-linecap:square" />
      </g>
    </marker>
    <marker
       inkscape:stockid="DotM"
       orient="auto"
       refY="0"
       refX="0"
       id="marker7351"
       style="overflow:visible"
       inkscape:isstock="true">
      <path
         id="path7353"
         d="m -2.5,-1 c 0,2.76 -2.24,5 -5,5 -2.76,0 -5,-2.24 -5,-5 0,-2.76 2.24,-5 5,-5 2.76,0 5,2.24 5,5 z"
         style="fill:#000000;fill-opacity:1;fill-rule:evenodd;stroke:#000000;stroke-width:1pt;stroke-opacity:1"
         transform="matrix(0.4,0,0,0.4,2.96,0.4)"
         inkscape:connector-curvature="0" />
    </marker>
    <marker
       inkscape:stockid="DotM"
       orient="auto"
       refY="0"
       refX="0"
       id="marker6747"
       style="overflow:visible"
       inkscape:isstock="true">
      <path
         id="path6749"
         d="m -2.5,-1 c 0,2.76 -2.24,5 -5,5 -2.76,0 -5,-2.24 -5,-5 0,-2.76 2.24,-5 5,-5 2.76,0 5,2.24 5,5 z"
         style="fill:#000000;fill-opacity:1;fill-rule:evenodd;stroke:#000000;stroke-width:1pt;stroke-opacity:1"
         transform="matrix(0.4,0,0,0.4,2.96,0.4)"
         inkscape:connector-curvature="0" />
    </marker>
    <marker
       inkscape:stockid="DotM"
       orient="auto"
       refY="0"
       refX="0"
       id="marker5593"
       style="overflow:visible"
       inkscape:isstock="true">
      <path
         id="path5595"
         d="m -2.5,-1 c 0,2.76 -2.24,5 -5,5 -2.76,0 -5,-2.24 -5,-5 0,-2.76 2.24,-5 5,-5 2.76,0 5,2.24 5,5 z"
         style="fill:#000000;fill-opacity:1;fill-rule:evenodd;stroke:#000000;stroke-width:1pt;stroke-opacity:1"
         transform="matrix(0.4,0,0,0.4,2.96,0.4)"
         inkscape:connector-curvature="0" />
    </marker>
    <marker
       inkscape:stockid="DotM"
       orient="auto"
       refY="0"
       refX="0"
       id="marker5109"
       style="overflow:visible"
       inkscape:isstock="true">
      <path
         id="path5111"
         d="m -2.5,-1 c 0,2.76 -2.24,5 -5,5 -2.76,0 -5,-2.24 -5,-5 0,-2.76 2.24,-5 5,-5 2.76,0 5,2.24 5,5 z"
         style="fill:#000000;fill-opacity:1;fill-rule:evenodd;stroke:#000000;stroke-width:1pt;stroke-opacity:1"
         transform="matrix(0.4,0,0,0.4,2.96,0.4)"
         inkscape:connector-curvature="0" />
    </marker>
    <marker
       inkscape:stockid="DotL"
       orient="auto"
       refY="0"
       refX="0"
       id="DotL"
       style="overflow:visible"
       inkscape:isstock="true">
      <path
         id="path5143"
         d="m -2.5,-1 c 0,2.76 -2.24,5 -5,5 -2.76,0 -5,-2.24 -5,-5 0,-2.76 2.24,-5 5,-5 2.76,0 5,2.24 5,5 z"
         style="fill:#000000;fill-opacity:1;fill-rule:evenodd;stroke:#000000;stroke-width:1pt;stroke-opacity:1"
         transform="matrix(0.8,0,0,0.8,5.92,0.8)"
         inkscape:connector-curvature="0" />
    </marker>
    <marker
       inkscape:stockid="Tail"
       orient="auto"
       refY="0"
       refX="0"
       id="Tail"
       style="overflow:visible"
       inkscape:isstock="true">
      <g
         id="g5118"
         transform="scale(-1.2,-1.2)"
         style="fill:#000000;fill-opacity:1;stroke:#000000;stroke-opacity:1">
        <path
           id="path5120"
           d="M -3.8048674,-3.9585227 0.54352094,0"
           style="fill:#000000;fill-opacity:1;fill-rule:evenodd;stroke:#000000;stroke-width:0.80000001;stroke-linecap:round;stroke-opacity:1"
           inkscape:connector-curvature="0" />
        <path
           id="path5122"
           d="M -1.2866832,-3.9585227 3.0617053,0"
           style="fill:#000000;fill-opacity:1;fill-rule:evenodd;stroke:#000000;stroke-width:0.80000001;stroke-linecap:round;stroke-opacity:1"
           inkscape:connector-curvature="0" />
        <path
           id="path5124"
           d="M 1.3053582,-3.9585227 5.6537466,0"
           style="fill:#000000;fill-opacity:1;fill-rule:evenodd;stroke:#000000;stroke-width:0.80000001;stroke-linecap:round;stroke-opacity:1"
           inkscape:connector-curvature="0" />
        <path
           id="path5126"
           d="M -3.8048674,4.1775838 0.54352094,0.21974226"
           style="fill:#000000;fill-opacity:1;fill-rule:evenodd;stroke:#000000;stroke-width:0.80000001;stroke-linecap:round;stroke-opacity:1"
           inkscape:connector-curvature="0" />
        <path
           id="path5128"
           d="M -1.2866832,4.1775838 3.0617053,0.21974226"
           style="fill:#000000;fill-opacity:1;fill-rule:evenodd;stroke:#000000;stroke-width:0.80000001;stroke-linecap:round;stroke-opacity:1"
           inkscape:connector-curvature="0" />
        <path
           id="path5130"
           d="M 1.3053582,4.1775838 5.6537466,0.21974226"
           style="fill:#000000;fill-opacity:1;fill-rule:evenodd;stroke:#000000;stroke-width:0.80000001;stroke-linecap:round;stroke-opacity:1"
           inkscape:connector-curvature="0" />
      </g>
    </marker>
    <marker
       inkscape:stockid="Arrow1Lstart"
       orient="auto"
       refY="0"
       refX="0"
       id="Arrow1Lstart"
       style="overflow:visible"
       inkscape:isstock="true">
      <path
         id="path5082"
         d="M 0,0 5,-5 -12.5,0 5,5 0,0 Z"
         style="fill:#000000;fill-opacity:1;fill-rule:evenodd;stroke:#000000;stroke-width:1pt;stroke-opacity:1"
         transform="matrix(0.8,0,0,0.8,10,0)"
         inkscape:connector-curvature="0" />
    </marker>
    <inkscape:perspective
       sodipodi:type="inkscape:persp3d"
       inkscape:vp_x="0 : 526.18112 : 1"
       inkscape:vp_y="0 : 1000 : 0"
       inkscape:vp_z="744.09448 : 526.18112 : 1"
       inkscape:persp3d-origin="372.04724 : 350.78741 : 1"
       id="perspective3342" />
  </defs>
  <g
     inkscape:label="Capa 1"
     inkscape:groupmode="layer"
     id="layer1">
    <g
       id="g1629"
       transform="matrix(1.0666667,0,0,1.0666667,104.12489,39.838806)">
      <g
         id="g15182"
         transform="matrix(1,0,0,0.36091728,1882.4999,375.68428)">
        <rect
           style="fill:#81b4fe;stroke-width:4.33203;stroke-linecap:round;stroke-linejoin:round;stroke-miterlimit:4;stroke-dasharray:none;stroke-dashoffset:1.14279;stop-color:#000000"
           id="rect14560"
           width="225.70708"
           height="40.495407"
           x="-1904.0723"
           y="-778.29968" />
        <rect
           style="fill:#a8cbfe;stroke-width:4.33203;stroke-linecap:round;stroke-linejoin:round;stroke-miterlimit:4;stroke-dasharray:none;stroke-dashoffset:1.14279;stop-color:#000000"
           id="rect14642"
           width="225.70708"
           height="40.495407"
           x="-1678.3651"
           y="-778.29968" />
        <rect
           style="fill:#81b4fe;stroke-width:4.33203;stroke-linecap:round;stroke-linejoin:round;stroke-miterlimit:4;stroke-dasharray:none;stroke-dashoffset:1.14279;stop-color:#000000"
           id="rect14804"
           width="225.70708"
           height="40.495407"
           x="-1452.6581"
           y="-778.29968" />
        <rect
           style="fill:#a8cbfe;stroke-width:4.33203;stroke-linecap:round;stroke-linejoin:round;stroke-miterlimit:4;stroke-dasharray:none;stroke-dashoffset:1.14279;stop-color:#000000"
           id="rect14806"
           width="225.70708"
           height="40.495407"
           x="-1226.9509"
           y="-778.29968" />
        <rect
           style="fill:#81b4fe;stroke-width:4.33203;stroke-linecap:round;stroke-linejoin:round;stroke-miterlimit:4;stroke-dasharray:none;stroke-dashoffset:1.14279;stop-color:#000000"
           id="rect14808"
           width="225.70708"
           height="40.495407"
           x="-1001.2438"
           y="-778.29968" />
      </g>
      <text
         xml:space="preserve"
         style="font-size:68.7796px;line-height:1.25;font-family:sans-serif;letter-spacing:0px;word-spacing:0px;stroke-width:2.14936"
         x="34.965538"
         y="69.097481"
         id="text17584"><tspan
           sodipodi:role="line"
           id="tspan17582"
           style="font-style:normal;font-variant:normal;font-weight:normal;font-stretch:normal;font-size:68.7796px;font-family:Iosevka;-inkscape-font-specification:Iosevka;stroke-width:2.14936"
           x="34.965538"
           y="69.097481">Feb</tspan></text>
      <text
         xml:space="preserve"
         style="font-size:20px;line-height:1.25;font-family:sans-serif;letter-spacing:0px;word-spacing:0px;stroke-width:2.14936"
         x="179.06741"
         y="182.10118"
         id="text17584-5"><tspan
           sodipodi:role="line"
           id="tspan17582-7"
           style="font-style:normal;font-variant:normal;font-weight:normal;font-stretch:normal;font-size:20px;font-family:Iosevka;-inkscape-font-specification:Iosevka;text-align:center;text-anchor:middle;stroke-width:2.14936"
           x="179.06741"
           y="182.10118">I.Programación</tspan><tspan
           sodipodi:role="line"
           style="font-style:normal;font-variant:normal;font-weight:normal;font-stretch:normal;font-size:20px;font-family:Iosevka;-inkscape-font-specification:Iosevka;text-align:center;text-anchor:middle;stroke-width:2.14936"
           x="179.06741"
           y="207.55038"
           id="tspan16354">Creativa</tspan></text>
      <text
         xml:space="preserve"
         style="font-size:25px;line-height:1.25;font-family:sans-serif;letter-spacing:0px;word-spacing:0px;stroke-width:2.14936"
         x="62.835243"
         y="259.16858"
         id="text17584-5-2"><tspan
           sodipodi:role="line"
           id="tspan17582-7-1"
           style="font-style:normal;font-variant:normal;font-weight:normal;font-stretch:normal;font-size:25px;font-family:Iosevka;-inkscape-font-specification:Iosevka;stroke-width:2.14936"
           x="62.835243"
           y="259.16858">16</tspan></text>
      <text
         xml:space="preserve"
         style="font-size:68.7796px;line-height:1.25;font-family:sans-serif;letter-spacing:0px;word-spacing:0px;stroke-width:2.14936"
         x="261.60062"
         y="69.097481"
         id="text22634"><tspan
           sodipodi:role="line"
           id="tspan22632"
           style="font-style:normal;font-variant:normal;font-weight:normal;font-stretch:normal;font-size:68.7796px;font-family:Iosevka;-inkscape-font-specification:Iosevka;stroke-width:2.14936"
           x="261.60062"
           y="69.097481">Mar</tspan></text>
      <text
         xml:space="preserve"
         style="font-size:68.7796px;line-height:1.25;font-family:sans-serif;letter-spacing:0px;word-spacing:0px;stroke-width:2.14936"
         x="489.88638"
         y="69.097481"
         id="text23782"><tspan
           sodipodi:role="line"
           id="tspan23780"
           style="font-style:normal;font-variant:normal;font-weight:normal;font-stretch:normal;font-size:68.7796px;font-family:Iosevka;-inkscape-font-specification:Iosevka;stroke-width:2.14936"
           x="489.88638"
           y="69.097481">Abr</tspan></text>
      <text
         xml:space="preserve"
         style="font-size:68.7796px;line-height:1.25;font-family:sans-serif;letter-spacing:0px;word-spacing:0px;stroke-width:2.14936"
         x="717.00293"
         y="69.822693"
         id="text25098"><tspan
           sodipodi:role="line"
           id="tspan25096"
           style="font-style:normal;font-variant:normal;font-weight:normal;font-stretch:normal;font-size:68.7796px;font-family:Iosevka;-inkscape-font-specification:Iosevka;stroke-width:2.14936"
           x="717.00293"
           y="69.822693">May</tspan></text>
      <text
         xml:space="preserve"
         style="font-size:68.7796px;line-height:1.25;font-family:sans-serif;letter-spacing:0px;word-spacing:0px;stroke-width:2.14936"
         x="944.18829"
         y="69.097481"
         id="text26246"><tspan
           sodipodi:role="line"
           id="tspan26244"
           style="font-style:normal;font-variant:normal;font-weight:normal;font-stretch:normal;font-size:68.7796px;font-family:Iosevka;-inkscape-font-specification:Iosevka;stroke-width:2.14936"
           x="944.18829"
           y="69.097481">Jun</tspan></text>
      <path
         style="fill:none;stroke:#000000;stroke-width:1.45152;stroke-linecap:butt;stroke-linejoin:miter;stroke-miterlimit:4;stroke-dasharray:none;stroke-opacity:1;marker-start:url(#marker1459);marker-end:url(#marker1459)"
         d="M 95.308281,157.53184 H 264.21479"
         id="path953"
         sodipodi:nodetypes="cc" />
      <path
         style="fill:none;stroke:#000000;stroke-width:1.45152;stroke-linecap:butt;stroke-linejoin:miter;stroke-miterlimit:4;stroke-dasharray:none;stroke-opacity:1;marker-start:url(#marker1459)"
         d="M 603.96589,157.53184 H 1003.7801"
         id="path1946"
         sodipodi:nodetypes="cc" />
      <rect
         style="fill:#dd5498;stroke-width:5.79614;stroke-linecap:round;stroke-linejoin:round;stroke-miterlimit:4;stroke-dasharray:none;stroke-dashoffset:0;stop-color:#000000"
         id="rect15363"
         width="81.08075"
         height="28.594315"
         x="95.375381"
         y="236.11092" />
      <rect
         style="fill:#dd5498;stroke-width:6.53718;stroke-linecap:round;stroke-linejoin:round;stroke-miterlimit:4;stroke-dasharray:none;stroke-dashoffset:0;stop-color:#000000"
         id="rect15445"
         width="103.13873"
         height="28.594315"
         x="176.64888"
         y="275.18912" />
      <rect
         style="fill:#28a745;stroke-width:7.92068;stroke-linecap:round;stroke-linejoin:round;stroke-miterlimit:4;stroke-dasharray:none;stroke-dashoffset:0;stop-color:#000000"
         id="rect15447"
         width="151.41373"
         height="28.594315"
         x="316.12616"
         y="315.46878" />
      <path
         style="fill:none;stroke:#000000;stroke-width:1.45152;stroke-linecap:butt;stroke-linejoin:miter;stroke-miterlimit:4;stroke-dasharray:1.45152, 1.45152;stroke-dashoffset:0;stroke-opacity:1"
         d="m 504.8917,157.53184 h 91.39389"
         id="path1382"
         sodipodi:nodetypes="cc" />
      <text
         xml:space="preserve"
         style="font-size:25px;line-height:1.25;font-family:sans-serif;letter-spacing:0px;word-spacing:0px;fill:#808080;stroke-width:2.14936"
         x="506.04965"
         y="147.73506"
         id="text2127"><tspan
           sodipodi:role="line"
           id="tspan2125"
           style="font-style:normal;font-variant:normal;font-weight:normal;font-stretch:normal;font-size:25px;font-family:Iosevka;-inkscape-font-specification:Iosevka;fill:#808080;stroke-width:2.14936"
           x="506.04965"
           y="147.73506">S.Santa</tspan></text>
      <path
         style="fill:none;stroke:#000000;stroke-width:1.45152;stroke-linecap:butt;stroke-linejoin:miter;stroke-miterlimit:4;stroke-dasharray:none;stroke-opacity:1;marker-start:url(#marker1459);marker-end:url(#marker1459)"
         d="m 316.38778,157.53184 150.89361,-0.4009"
         id="path3944"
         sodipodi:nodetypes="cc" />
      <text
         xml:space="preserve"
         style="font-size:25px;line-height:1.25;font-family:sans-serif;letter-spacing:0px;word-spacing:0px;stroke-width:2.14936"
         x="179.24933"
         y="259.16858"
         id="text8034"><tspan
           sodipodi:role="line"
           id="tspan8032"
           style="font-style:normal;font-variant:normal;font-weight:normal;font-stretch:normal;font-size:25px;font-family:Iosevka;-inkscape-font-specification:Iosevka;stroke-width:2.14936"
           x="179.24933"
           y="259.16858">24</tspan></text>
      <text
         xml:space="preserve"
         style="font-size:25px;line-height:1.25;font-family:sans-serif;letter-spacing:0px;word-spacing:0px;stroke-width:2.14936"
         x="145.68707"
         y="297.85172"
         id="text8854"><tspan
           sodipodi:role="line"
           id="tspan8852"
           style="font-style:normal;font-variant:normal;font-weight:normal;font-stretch:normal;font-size:25px;font-family:Iosevka;-inkscape-font-specification:Iosevka;stroke-width:2.14936"
           x="145.68707"
           y="297.85172">24</tspan></text>
      <text
         xml:space="preserve"
         style="font-size:25px;line-height:1.25;font-family:sans-serif;letter-spacing:0px;word-spacing:0px;stroke-width:2.14936"
         x="282.64651"
         y="298.35648"
         id="text8858"><tspan
           sodipodi:role="line"
           id="tspan8856"
           style="font-style:normal;font-variant:normal;font-weight:normal;font-stretch:normal;font-size:25px;font-family:Iosevka;-inkscape-font-specification:Iosevka;stroke-width:2.14936"
           x="282.64651"
           y="298.35648">10</tspan></text>
      <text
         xml:space="preserve"
         style="font-size:25px;line-height:1.25;font-family:sans-serif;letter-spacing:0px;word-spacing:0px;stroke-width:2.14936"
         x="288.24612"
         y="338.15634"
         id="text11198"><tspan
           sodipodi:role="line"
           id="tspan11196"
           style="font-style:normal;font-variant:normal;font-weight:normal;font-stretch:normal;font-size:25px;font-family:Iosevka;-inkscape-font-specification:Iosevka;stroke-width:2.14936"
           x="288.24612"
           y="338.15634">16</tspan></text>
      <text
         xml:space="preserve"
         style="font-size:25px;line-height:1.25;font-family:sans-serif;letter-spacing:0px;word-spacing:0px;stroke-width:2.14936"
         x="471.4837"
         y="338.6611"
         id="text11202"><tspan
           sodipodi:role="line"
           id="tspan11200"
           style="font-style:normal;font-variant:normal;font-weight:normal;font-stretch:normal;font-size:25px;font-family:Iosevka;-inkscape-font-specification:Iosevka;stroke-width:2.14936"
           x="471.4837"
           y="338.6611">6</tspan></text>
      <text
         xml:space="preserve"
         style="font-size:25px;line-height:1.25;font-family:sans-serif;letter-spacing:0px;word-spacing:0px;fill:#ffffff;stroke-width:2.14936"
         x="122.27224"
         y="259.16858"
         id="text13394"><tspan
           sodipodi:role="line"
           id="tspan13392"
           style="font-style:normal;font-variant:normal;font-weight:bold;font-stretch:normal;font-size:25px;font-family:Iosevka;-inkscape-font-specification:'Iosevka Bold';fill:#ffffff;stroke-width:2.14936"
           x="122.27224"
           y="259.16858">E1</tspan></text>
      <text
         xml:space="preserve"
         style="font-size:25px;line-height:1.25;font-family:sans-serif;letter-spacing:0px;word-spacing:0px;fill:#ffffff;stroke-width:2.14936"
         x="211.26901"
         y="297.92007"
         id="text17218"><tspan
           sodipodi:role="line"
           id="tspan17216"
           style="font-style:normal;font-variant:normal;font-weight:bold;font-stretch:normal;font-size:25px;font-family:Iosevka;-inkscape-font-specification:'Iosevka Bold';fill:#ffffff;stroke-width:2.14936"
           x="211.26901"
           y="297.92007">E2</tspan></text>
      <text
         xml:space="preserve"
         style="font-size:25px;line-height:1.25;font-family:sans-serif;letter-spacing:0px;word-spacing:0px;fill:#ffffff;stroke-width:2.14936"
         x="378.82056"
         y="338.02786"
         id="text19152"><tspan
           sodipodi:role="line"
           id="tspan19150"
           style="font-style:normal;font-variant:normal;font-weight:bold;font-stretch:normal;font-size:25px;font-family:Iosevka;-inkscape-font-specification:'Iosevka Bold';fill:#ffffff;stroke-width:2.14936"
           x="378.82056"
           y="338.02786">E3</tspan></text>
      <text
         xml:space="preserve"
         style="font-size:15px;line-height:1.25;font-family:sans-serif;letter-spacing:0px;word-spacing:0px;fill:#808080;stroke-width:2.14936"
         x="75.558929"
         y="162.71378"
         id="text41671"><tspan
           sodipodi:role="line"
           id="tspan41669"
           style="font-style:normal;font-variant:normal;font-weight:normal;font-stretch:normal;font-size:15px;font-family:Iosevka;-inkscape-font-specification:Iosevka;fill:#808080;stroke-width:2.14936"
           x="75.558929"
           y="162.71378">16</tspan></text>
      <text
         xml:space="preserve"
         style="font-size:15px;line-height:1.25;font-family:sans-serif;letter-spacing:0px;word-spacing:0px;fill:#808080;stroke-width:2.14936"
         x="266.51614"
         y="162.71378"
         id="text44879"><tspan
           sodipodi:role="line"
           id="tspan44877"
           style="font-style:normal;font-variant:normal;font-weight:normal;font-stretch:normal;font-size:15px;font-family:Iosevka;-inkscape-font-specification:Iosevka;fill:#808080;stroke-width:2.14936"
           x="266.51614"
           y="162.71378">10</tspan></text>
      <text
         xml:space="preserve"
         style="font-size:15px;line-height:1.25;font-family:sans-serif;letter-spacing:0px;word-spacing:0px;fill:#808080;stroke-width:2.14936"
         x="297.61444"
         y="162.91864"
         id="text45329"><tspan
           sodipodi:role="line"
           id="tspan45327"
           style="font-style:normal;font-variant:normal;font-weight:normal;font-stretch:normal;font-size:15px;font-family:Iosevka;-inkscape-font-specification:Iosevka;fill:#808080;stroke-width:2.14936"
           x="297.61444"
           y="162.91864">16</tspan></text>
      <text
         xml:space="preserve"
         style="font-size:15px;line-height:1.25;font-family:sans-serif;letter-spacing:0px;word-spacing:0px;fill:#808080;stroke-width:2.14936"
         x="538.40588"
         y="181.91333"
         id="text46762"><tspan
           sodipodi:role="line"
           id="tspan46760"
           style="font-style:normal;font-variant:normal;font-weight:normal;font-stretch:normal;font-size:15px;font-family:Iosevka;-inkscape-font-specification:Iosevka;fill:#808080;stroke-width:2.14936"
           x="538.40588"
           y="181.91333">7</tspan></text>
      <text
         xml:space="preserve"
         style="font-size:15px;line-height:1.25;font-family:sans-serif;letter-spacing:0px;word-spacing:0px;fill:#808080;stroke-width:2.14936"
         x="470.31097"
         y="162.91864"
         id="text12244"><tspan
           sodipodi:role="line"
           id="tspan12242"
           style="font-style:normal;font-variant:normal;font-weight:normal;font-stretch:normal;font-size:15px;font-family:Iosevka;-inkscape-font-specification:Iosevka;fill:#808080;stroke-width:2.14936"
           x="470.31097"
           y="162.91864">6</tspan></text>
      <circle
         style="fill:#000000;stroke-width:1.45152;stroke-linecap:round;stroke-linejoin:round;stroke-dasharray:1.45152, 1.45152;stop-color:#000000"
         id="path13826"
         cx="488.43893"
         cy="157.3358"
         r="4.8060684" />
      <path
         style="fill:none;stroke:#000000;stroke-width:0.9375px;stroke-linecap:butt;stroke-linejoin:miter;stroke-opacity:1;marker-end:url(#marker1459)"
         d="m 488.43894,157.3358 18.33356,18.33357 h 26.32555"
         id="path14004" />
      <text
         xml:space="preserve"
         style="font-size:20px;line-height:1.25;font-family:sans-serif;letter-spacing:0px;word-spacing:0px;stroke-width:2.14936"
         x="391.30496"
         y="182.4446"
         id="text21066"><tspan
           sodipodi:role="line"
           style="font-style:normal;font-variant:normal;font-weight:normal;font-stretch:normal;font-size:20px;font-family:Iosevka;-inkscape-font-specification:Iosevka;text-align:center;text-anchor:middle;stroke-width:2.14936"
           x="391.30496"
           y="182.4446"
           id="tspan21064">II.Computación</tspan><tspan
           sodipodi:role="line"
           style="font-style:normal;font-variant:normal;font-weight:normal;font-stretch:normal;font-size:20px;font-family:Iosevka;-inkscape-font-specification:Iosevka;text-align:center;text-anchor:middle;stroke-width:2.14936"
           x="391.30496"
           y="207.8938"
           id="tspan22208">Física</tspan></text>
      <text
         xml:space="preserve"
         style="font-size:20px;line-height:1.25;font-family:sans-serif;letter-spacing:0px;word-spacing:0px;stroke-width:2.14936"
         x="554.52502"
         y="208.92416"
         id="text26199"><tspan
           sodipodi:role="line"
           style="font-style:normal;font-variant:normal;font-weight:normal;font-stretch:normal;font-size:20px;font-family:Iosevka;-inkscape-font-specification:Iosevka;text-align:center;text-anchor:middle;stroke-width:2.14936"
           x="554.52502"
           y="208.92416"
           id="tspan26197">III.Caso de</tspan><tspan
           sodipodi:role="line"
           style="font-style:normal;font-variant:normal;font-weight:normal;font-stretch:normal;font-size:20px;font-family:Iosevka;-inkscape-font-specification:Iosevka;text-align:center;text-anchor:middle;stroke-width:2.14936"
           x="554.52502"
           y="234.37337"
           id="tspan32997"> Estudio</tspan></text>
      <text
         xml:space="preserve"
         style="font-size:20px;line-height:1.25;font-family:sans-serif;letter-spacing:0px;word-spacing:0px;stroke-width:2.14936"
         x="848.47601"
         y="182.4446"
         id="text26205"><tspan
           sodipodi:role="line"
           style="font-style:normal;font-variant:normal;font-weight:normal;font-stretch:normal;font-size:20px;font-family:Iosevka;-inkscape-font-specification:Iosevka;text-align:center;text-anchor:middle;stroke-width:2.14936"
           x="848.47601"
           y="182.4446"
           id="tspan26203">TFM Tutorías</tspan></text>
      <path
         style="fill:none;stroke:#000000;stroke-width:1.45152;stroke-linecap:butt;stroke-linejoin:miter;stroke-miterlimit:4;stroke-dasharray:1.45152, 1.45152;stroke-dashoffset:0;stroke-opacity:1"
         d="m 1003.7801,157.53184 h 91.3938"
         id="path36420"
         sodipodi:nodetypes="cc" />
      <text
         xml:space="preserve"
         style="font-size:25px;line-height:1.25;font-family:sans-serif;letter-spacing:0px;word-spacing:0px;stroke-width:2.14936"
         x="62.835243"
         y="379.33319"
         id="text44625"><tspan
           sodipodi:role="line"
           id="tspan44623"
           style="font-style:normal;font-variant:normal;font-weight:normal;font-stretch:normal;font-size:25px;font-family:Iosevka;-inkscape-font-specification:Iosevka;stroke-width:2.14936"
           x="62.835243"
           y="379.33319">16</tspan></text>
      <rect
         style="fill:#7e36f4;stroke-width:12.7197;stroke-linecap:round;stroke-linejoin:round;stroke-miterlimit:4;stroke-dasharray:none;stroke-dashoffset:0;stop-color:#000000"
         id="rect44627"
         width="390.47638"
         height="28.594315"
         x="95.375381"
         y="356.27554" />
      <text
         xml:space="preserve"
         style="font-size:25px;line-height:1.25;font-family:sans-serif;letter-spacing:0px;word-spacing:0px;stroke-width:2.14936"
         x="489.4191"
         y="379.33319"
         id="text44631"><tspan
           sodipodi:role="line"
           id="tspan44629"
           style="font-style:normal;font-variant:normal;font-weight:normal;font-stretch:normal;font-size:25px;font-family:Iosevka;-inkscape-font-specification:Iosevka;stroke-width:2.14936"
           x="489.4191"
           y="379.33319">7</tspan></text>
      <text
         xml:space="preserve"
         style="font-size:25px;line-height:1.25;font-family:sans-serif;letter-spacing:0px;word-spacing:0px;fill:#ffffff;stroke-width:2.14936"
         x="305.07727"
         y="379.33319"
         id="text44635"><tspan
           sodipodi:role="line"
           id="tspan44633"
           style="font-style:normal;font-variant:normal;font-weight:bold;font-stretch:normal;font-size:25px;font-family:Iosevka;-inkscape-font-specification:'Iosevka Bold';fill:#ffffff;stroke-width:2.14936"
           x="305.07727"
           y="379.33319">E4</tspan></text>
    </g>
  </g>
</svg>
